﻿{
  "dependencies": {
    "Microsoft.NETCore.UniversalWindowsPlatform": "5.2.2",
    "NUnit.Runners": "3.5.0",
    "ZXing.Net.Core": "0.2.6"
  },
  "frameworks": {
    "uap10.0": {}
  },
  "runtimes": {
    "win10-arm": {},
    "win10-arm-aot": {},
    "win10-x86": {},
    "win10-x86-aot": {},
    "win10-x64": {},
    "win10-x64-aot": {}
  }
}